{
    "/getCities": [
        {
            "id": 1,
            "name": "Самара"
        },
        {
            "id": 2,
            "name": "Норильск"
        },
        {
            "id": 3,
            "name": "Мехико"
        },
        {
            "id": 4,
            "name": "Бомбей"
        }
    ],
    "/getCityHistory/1": [
        {
            "date": "01.01.2019",
            "temperature": -6,
            "windSpeed": 11
        },
        {
            "date": "04.01.2019",
            "temperature": -3,
            "windSpeed": 10
        },
        {
            "date": "05.01.2019",
            "temperature": -9,
            "windSpeed": 4
        },
        {
            "date": "08.01.2019",
            "temperature": 0,
            "windSpeed": 1
        }
    ],
    "/getCityHistory/2": [
        {
            "date": "03.01.2019",
            "temperature": -21,
            "windSpeed": 30
        },
        {
            "date": "05.01.2019",
            "temperature": -25,
            "windSpeed": 31
        },
        {
            "date": "11.01.2019",
            "temperature": -29,
            "windSpeed": 25
        },
        {
            "date": "24.01.2019",
            "temperature": -31,
            "windSpeed": 22
        }
    ],
    "/getCityHistory/3": [
        {
            "date": "02.01.2019",
            "temperature": 28,
            "windSpeed": 3
        },
        {
            "date": "05.01.2019",
            "temperature": 29,
            "windSpeed": 2
        },
        {
            "date": "08.01.2019",
            "temperature": 28,
            "windSpeed": 4
        },
        {
            "date": "13.01.2019",
            "temperature": 30,
            "windSpeed": 1
        }
    ],
    "/getCityHistory/4": [
        {
            "date": "02.01.2019",
            "temperature": 25,
            "windSpeed": 1
        },
        {
            "date": "08.01.2019",
            "temperature": 24,
            "windSpeed": 3
        },
        {
            "date": "18.01.2019",
            "temperature": 29,
            "windSpeed": 2
        },
        {
            "date": "28.01.2019",
            "temperature": 22,
            "windSpeed": 8
        }
    ]
}